{
	"info": {
		"_postman_id": "cf15f76a-91ad-4ca5-9d3c-51e07748f5bf",
		"name": "SimpleBook",
		"schema": "https://schema.getpostman.com/json/collection/v2.1.0/collection.json",
		"_exporter_id": "12027191"
	},
	"item": [
		{
			"name": "Status",
			"event": [
				{
					"listen": "test",
					"script": {
						"exec": [
							"pm.test(\"Status code is 200\", function () {",
							"    pm.response.to.have.status(200);",
							"});"
						],
						"type": "text/javascript"
					}
				}
			],
			"request": {
				"method": "GET",
				"header": [],
				"url": {
					"raw": "{{simplebank-api}}/status",
					"host": [
						"{{simplebank-api}}"
					],
					"path": [
						"status"
					]
				}
			},
			"response": []
		},
		{
			"name": "Auth",
			"event": [
				{
					"listen": "test",
					"script": {
						"exec": [
							"pm.test(\"Response return 201\", () => {",
							"    pm.response.to.have.status(201)",
							"})",
							"",
							"response = pm.response.json()",
							"",
							"pm.collectionVariables.set(\"accessToken\", response.accessToken)"
						],
						"type": "text/javascript"
					}
				}
			],
			"request": {
				"method": "POST",
				"header": [],
				"body": {
					"mode": "raw",
					"raw": "{\n   \"clientName\": \"{{$randomUserName}}\",\n   \"clientEmail\": \"{{$randomEmail}}\"\n}",
					"options": {
						"raw": {
							"language": "json"
						}
					}
				},
				"url": {
					"raw": "{{simplebank-api}}/api-clients/",
					"host": [
						"{{simplebank-api}}"
					],
					"path": [
						"api-clients",
						""
					]
				}
			},
			"response": []
		},
		{
			"name": "Lists Books",
			"event": [
				{
					"listen": "test",
					"script": {
						"exec": [
							"pm.test(\"Status code is 200\", function () {",
							"    pm.response.to.have.status(200);",
							"});"
						],
						"type": "text/javascript"
					}
				}
			],
			"request": {
				"method": "GET",
				"header": [],
				"url": {
					"raw": "{{simplebank-api}}/books",
					"host": [
						"{{simplebank-api}}"
					],
					"path": [
						"books"
					]
				}
			},
			"response": []
		},
		{
			"name": "Single book based on ID",
			"event": [
				{
					"listen": "test",
					"script": {
						"exec": [
							"pm.test(\"Status code is 200\", function () {",
							"    pm.response.to.have.status(200);",
							"});"
						],
						"type": "text/javascript"
					}
				}
			],
			"request": {
				"method": "GET",
				"header": [],
				"url": {
					"raw": "{{simplebank-api}}/books/:bookId",
					"host": [
						"{{simplebank-api}}"
					],
					"path": [
						"books",
						":bookId"
					],
					"variable": [
						{
							"key": "bookId",
							"value": "2"
						}
					]
				}
			},
			"response": []
		},
		{
			"name": "Create an order",
			"event": [
				{
					"listen": "test",
					"script": {
						"exec": [
							"pm.test(\"Status code is 201\", function () {",
							"    pm.response.to.have.status(201);",
							"});",
							"",
							"response = pm.response.json()",
							"pm.collectionVariables.set(\"orderId\", response.orderId)"
						],
						"type": "text/javascript"
					}
				}
			],
			"request": {
				"auth": {
					"type": "bearer",
					"bearer": [
						{
							"key": "token",
							"value": "{{accessToken}}",
							"type": "string"
						}
					]
				},
				"method": "POST",
				"header": [],
				"body": {
					"mode": "raw",
					"raw": "{\n  \"bookId\": 1,\n  \"customerName\": \"{{$randomUserName}}\"\n}",
					"options": {
						"raw": {
							"language": "json"
						}
					}
				},
				"url": {
					"raw": "{{simplebank-api}}/orders",
					"host": [
						"{{simplebank-api}}"
					],
					"path": [
						"orders"
					]
				}
			},
			"response": []
		},
		{
			"name": "List Orders",
			"event": [
				{
					"listen": "test",
					"script": {
						"exec": [
							"pm.test(\"Status code is 200\", function () {",
							"    pm.response.to.have.status(200);",
							"});"
						],
						"type": "text/javascript"
					}
				}
			],
			"request": {
				"auth": {
					"type": "bearer",
					"bearer": [
						{
							"key": "token",
							"value": "{{accessToken}}",
							"type": "string"
						}
					]
				},
				"method": "GET",
				"header": [],
				"url": {
					"raw": "{{simplebank-api}}/orders",
					"host": [
						"{{simplebank-api}}"
					],
					"path": [
						"orders"
					]
				}
			},
			"response": []
		},
		{
			"name": "Single order based on ID",
			"event": [
				{
					"listen": "test",
					"script": {
						"exec": [
							"pm.test(\"Status code is 200\", function () {",
							"    pm.response.to.have.status(200);",
							"});"
						],
						"type": "text/javascript"
					}
				}
			],
			"request": {
				"auth": {
					"type": "bearer",
					"bearer": [
						{
							"key": "token",
							"value": "{{accessToken}}",
							"type": "string"
						}
					]
				},
				"method": "GET",
				"header": [],
				"url": {
					"raw": "{{simplebank-api}}/orders/:orderId",
					"host": [
						"{{simplebank-api}}"
					],
					"path": [
						"orders",
						":orderId"
					],
					"variable": [
						{
							"key": "orderId",
							"value": "{{orderId}}"
						}
					]
				}
			},
			"response": []
		},
		{
			"name": "Update an order",
			"event": [
				{
					"listen": "test",
					"script": {
						"exec": [
							"pm.test(\"Status code is 204\", function () {",
							"    pm.response.to.have.status(204);",
							"});"
						],
						"type": "text/javascript"
					}
				}
			],
			"request": {
				"auth": {
					"type": "bearer",
					"bearer": [
						{
							"key": "token",
							"value": "{{accessToken}}",
							"type": "string"
						}
					]
				},
				"method": "PATCH",
				"header": [],
				"body": {
					"mode": "raw",
					"raw": "{\n    \"clientName\": \"{{$randomUserName}}\"\n}",
					"options": {
						"raw": {
							"language": "json"
						}
					}
				},
				"url": {
					"raw": "{{simplebank-api}}/orders/:orderId",
					"host": [
						"{{simplebank-api}}"
					],
					"path": [
						"orders",
						":orderId"
					],
					"variable": [
						{
							"key": "orderId",
							"value": "{{orderId}}"
						}
					]
				}
			},
			"response": []
		},
		{
			"name": "Delete an order",
			"event": [
				{
					"listen": "test",
					"script": {
						"exec": [
							"pm.test(\"Status code is 204\", function () {",
							"    pm.response.to.have.status(204);",
							"});"
						],
						"type": "text/javascript"
					}
				}
			],
			"request": {
				"auth": {
					"type": "bearer",
					"bearer": [
						{
							"key": "token",
							"value": "{{accessToken}}",
							"type": "string"
						}
					]
				},
				"method": "DELETE",
				"header": [],
				"url": {
					"raw": "{{simplebank-api}}/orders/:orderId",
					"host": [
						"{{simplebank-api}}"
					],
					"path": [
						"orders",
						":orderId"
					],
					"variable": [
						{
							"key": "orderId",
							"value": "{{orderId}}"
						}
					]
				}
			},
			"response": []
		}
	],
	"variable": [
		{
			"key": "simplebank-api",
			"value": "https://simple-books-api.glitch.me"
		},
		{
			"key": "accessToken",
			"value": ""
		},
		{
			"key": "orderId",
			"value": ""
		}
	]
}